key,time,value
5-30, 00, 0
5-30, 01, 0
5-30, 02, 0
5-30, 03, 0
5-30, 04, 0
5-30, 05, 0
5-30, 06, 0
5-30, 07, 0
5-30, 08, 0
5-30, 09, 0.0559999999999974
5-30, 10, 0
5-30, 11, 0
5-30, 12, 0.0420000000000016
5-30, 13, 0.00400000000000489
5-30, 14, 0.00900000000000034
5-30, 15, 0.0599999999999881
5-30, 16, 0.0160000000000053
5-30, 17, 0
5-30, 18, 0.00799999999999557
5-30, 19, 0.00200000000000955
5-30, 20, 0.000999999999990564
5-30, 21, 0.0370000000000061
5-30, 22, 0.00100000000000477
5-30, 23, 0.00600000000000023
5-31, 00, 0
5-31, 01, 0
5-31, 02, 0
5-31, 03, 0
5-31, 04, 0
5-31, 05, 0
5-31, 06, 0
5-31, 07, 0
5-31, 08, 0
5-31, 09, 0.00499999999999545
5-31, 10, 0.0180000000000007
5-31, 11, 0.0789999999999935
5-31, 12, 0.0439999999999969
5-31, 13, 0
5-31, 14, 0
5-31, 15, 0
5-31, 16, 0
5-31, 17, 0.00100000000000477
5-31, 18, 0
5-31, 19, 0
5-31, 20, 0.00400000000000489
5-31, 21, 0.0570000000000022
5-31, 22, 0.000999999999990564
5-31, 23, 0.00300000000000011
6-01, 00, 0
6-01, 01, 0
6-01, 02, 0
6-01, 03, 0
6-01, 04, 0
6-01, 05, 0
6-01, 06, 0
6-01, 07, 0
6-01, 08, 0
6-01, 09, 0
6-01, 10, 0.0170000000000101
6-01, 11, 0.0109999999999957
6-01, 12, 0.00799999999999557
6-01, 13, 0.0430000000000064
6-01, 14, 0
6-01, 15, 0.00199999999999534
6-01, 16, 0.007000000000005
6-01, 17, 0
6-01, 18, 0.0510000000000019
6-01, 19, 0
6-01, 20, 0.00199999999999534
6-01, 21, 0.00100000000000477
6-01, 22, 0
6-01, 23, 0.00300000000000011
6-02, 00, 0
6-02, 01, 0
6-02, 02, 0
6-02, 03, 0
6-02, 04, 0
6-02, 05, 0
6-02, 06, 0
6-02, 07, 0
6-02, 08, 0
6-02, 09, 0.00499999999999545
6-02, 10, 0.0480000000000018
6-02, 11, 0
6-02, 12, 0
6-02, 13, 0
6-02, 14, 0
6-02, 15, 0
6-02, 16, 0.012999999999991
6-02, 17, 0
6-02, 18, 0
6-02, 19, 0.0710000000000122
6-02, 20, 0.0449999999999875
6-02, 21, 0
6-02, 22, 0
6-02, 23, 0.00300000000000011
6-03, 00, 0
6-03, 01, 0
6-03, 02, 0
6-03, 03, 0
6-03, 04, 0.00600000000000023
6-03, 05, 0.0100000000000051
6-03, 06, 0
6-03, 07, 0
6-03, 08, 0
6-03, 09, 0.00400000000000489
6-03, 10, 0.0459999999999923
6-03, 11, 0
6-03, 12, 0
6-03, 13, 0
6-03, 14, 0.0360000000000014
6-03, 15, 0
6-03, 16, 0.00199999999999534
6-03, 17, 0.00100000000000477
6-03, 18, 0.0910000000000082
6-03, 19, 0
6-03, 20, 0
6-03, 21, 0
6-03, 22, 0.00300000000000011
6-03, 23, 0
6-04, 00, 0
6-04, 01, 0
6-04, 02, 0
6-04, 03, 0
6-04, 04, 0
6-04, 05, 0
6-04, 06, 0
6-04, 07, 0
6-04, 08, 0
6-04, 09, 0.00499999999999545
6-04, 10, 0.0309999999999917
6-04, 11, 0
6-04, 12, 0
6-04, 13, 0
6-04, 14, 0.00800000000000978
6-04, 15, 0
6-04, 16, 0.00600000000000023
6-04, 17, 0.146999999999991
6-04, 18, 0.00600000000000023
6-04, 19, 0
6-04, 20, 0.00100000000000477
6-04, 21, 0.00100000000000477
6-04, 22, 0
6-04, 23, 0
6-05, 00, 0.00300000000000011
6-05, 01, 0
6-05, 02, 0
6-05, 03, 0
6-05, 04, 0
6-05, 05, 0
6-05, 06, 0
6-05, 07, 0.00199999999999534
6-05, 08, 0
6-05, 09, 0
6-05, 10, 0.0409999999999968
6-05, 11, 0
6-05, 12, 0
6-05, 13, 0
6-05, 14, 0.0120000000000005
6-05, 15, 0
6-05, 16, 0.0690000000000026
6-05, 17, 0.00100000000000477
6-05, 18, 0
6-05, 19, 0.090999999999994
6-05, 20, 0
6-05, 21, 0.00499999999999545
6-05, 22, 0
6-05, 23, 0.00300000000000011
6-06, 00, 0
6-06, 01, 0
6-06, 02, 0
6-06, 03, 0
6-06, 04, 0
6-06, 05, 0
6-06, 06, 0
6-06, 07, 0
6-06, 08, 0.00100000000000477
6-06, 09, 0
6-06, 10, 0
6-06, 11, 0.0930000000000035
6-06, 12, 0.000999999999990564
6-06, 13, 0.00500000000000966
6-06, 14, 0.0300000000000011
6-06, 15, 0.0150000000000006
6-06, 16, 0.00199999999999534
6-06, 17, 0.00100000000000477
6-06, 18, 0
6-06, 19, 0
6-06, 20, 0.00600000000000023
6-06, 21, 0.00399999999999068
6-06, 22, 0
6-06, 23, 0.00300000000000011
6-07, 00, 0
6-07, 01, 0
6-07, 02, 0
6-07, 03, 0
6-07, 04, 0
6-07, 05, 0
6-07, 06, 0
6-07, 07, 0.00100000000000477
6-07, 08, 0.0109999999999957
6-07, 09, 0.0880000000000081
6-07, 10, 0.0369999999999919
6-07, 11, 0
6-07, 12, 0
6-07, 13, 0
6-07, 14, 0.0450000000000017
6-07, 15, 0
6-07, 16, 0.00100000000000477
6-07, 17, 0
6-07, 18, 0
6-07, 19, 0
6-07, 20, 0.0429999999999922
6-07, 21, 0
6-07, 22, 0
6-07, 23, 0.00200000000000955
6-08, 00, 0
6-08, 01, 0
6-08, 02, 0
6-08, 03, 0
6-08, 04, 0
6-08, 05, 0
6-08, 06, 0
6-08, 07, 0
6-08, 08, 0
6-08, 09, 0.0210000000000008
6-08, 10, 0.0229999999999961
6-08, 11, 0.0769999999999982
6-08, 12, 0.034000000000006
6-08, 13, 0
6-08, 14, 0
6-08, 15, 0.000999999999990564
6-08, 16, 0.00400000000000489
6-08, 17, 0.0100000000000051
6-08, 18, 0.070999999999998
6-08, 19, 0
6-08, 20, 0
6-08, 21, 0.0159999999999911
6-08, 22, 0
6-08, 23, 0
6-09, 00, 0.00100000000000477
6-09, 01, 0
6-09, 02, 0
6-09, 03, 0
6-09, 04, 0
6-09, 05, 0
6-09, 06, 0
6-09, 07, 0
6-09, 08, 0
6-09, 09, 0.00199999999999534
6-09, 10, 0.0370000000000061
6-09, 11, 0
6-09, 12, 0
6-09, 13, 0
6-09, 14, 0.00400000000000489
6-09, 15, 0
6-09, 16, 0.0349999999999966
6-09, 17, 0
6-09, 18, 0
6-09, 19, 0.00600000000000023
6-09, 20, 0
6-09, 21, 0.000999999999990564
6-09, 22, 0
6-09, 23, 0.00200000000000955
6-10, 00, 0
6-10, 01, 0
6-10, 02, 0
6-10, 03, 0
6-10, 04, 0.00600000000000023
6-10, 05, 0
6-10, 06, 0
6-10, 07, 0
6-10, 08, 0.000999999999990564
6-10, 09, 0.00100000000000477
6-10, 10, 0.0439999999999969
6-10, 11, 0
6-10, 12, 0
6-10, 13, 0
6-10, 14, 0.00800000000000978
6-10, 15, 0.0789999999999935
6-10, 16, 0
6-10, 17, 0
6-10, 18, 0.0499999999999972
6-10, 19, 0
6-10, 20, 0.00400000000000489
6-10, 21, 0.00100000000000477
6-10, 22, 0
6-10, 23, 0.00300000000000011
6-11, 00, 0
6-11, 01, 0
6-11, 02, 0
6-11, 03, 0
6-11, 04, 0.0339999999999918
6-11, 05, 0.00100000000000477
6-11, 06, 0
6-11, 07, 0.000999999999990564
6-11, 08, 0
6-11, 09, 0.00100000000000477
6-11, 10, 0.0520000000000067
6-11, 11, 0
6-11, 12, 0
6-11, 13, 0.012999999999991
6-11, 14, 0.0280000000000058
6-11, 15, 0.00199999999999534
6-11, 16, 0
6-11, 17, 0.0730000000000075
6-11, 18, 0.0499999999999972
6-11, 19, 0
6-11, 20, 0
6-11, 21, 0.00100000000000477
6-11, 22, 0
6-11, 23, 0
6-12, 00, 0
6-12, 01, 0
6-12, 02, 0
6-12, 03, 0
6-12, 04, 0.00600000000000023
6-12, 05, 0
6-12, 06, 0
6-12, 07, 0
6-12, 08, 0
6-12, 09, 0
6-12, 10, 0.0429999999999922
6-12, 11, 0
6-12, 12, 0
6-12, 13, 0
6-12, 14, 0.00799999999999557
6-12, 15, 0.0660000000000025
6-12, 16, 0
6-12, 17, 0
6-12, 18, 0
6-12, 19, 0.0480000000000018
6-12, 20, 0
6-12, 21, 0.0570000000000022
6-12, 22, 0.00100000000000477
6-12, 23, 0.00199999999999534
6-13, 00, 0
6-13, 01, 0
6-13, 02, 0
6-13, 03, 0
6-13, 04, 0
6-13, 05, 0.00499999999999545
6-13, 06, 0
6-13, 07, 0.0450000000000017
6-13, 08, 0.0409999999999968
6-13, 09, 0
6-13, 10, 0
6-13, 11, 0
6-13, 12, 0
6-13, 13, 0.0150000000000006
6-13, 14, 0
6-13, 15, 0
6-13, 16, 0.00100000000000477
6-13, 17, 0
6-13, 18, 0
6-13, 19, 0
6-13, 20, 0
6-13, 21, 0
6-13, 22, 0.00900000000000034
6-13, 23, 0.0289999999999964
6-14, 00, 0.00200000000000955
6-14, 01, 0
6-14, 02, 0
6-14, 03, 0
6-14, 04, 0
6-14, 05, 0
6-14, 06, 0
6-14, 07, 0
6-14, 08, 0
6-14, 09, 0
6-14, 10, 0.0629999999999882
6-14, 11, 0.0720000000000027
6-14, 12, 0
6-14, 13, 0
6-14, 14, 0.00100000000000477
6-14, 15, 0
6-14, 16, 0
6-14, 17, 0.0159999999999911
6-14, 18, 0.00600000000000023
6-14, 19, 0.085000000000008
6-14, 20, 0
6-14, 21, 0
6-14, 22, 0.0300000000000011
6-14, 23, 0.00199999999999534
6-15, 00, 0
6-15, 01, 0
6-15, 02, 0
6-15, 03, 0
6-15, 04, 0
6-15, 05, 0
6-15, 06, 0
6-15, 07, 0
6-15, 08, 0
6-15, 09, 0
6-15, 10, 0.0150000000000006
6-15, 11, 0.0139999999999958
6-15, 12, 0.00800000000000978
6-15, 13, 0.0939999999999941
6-15, 14, 0.019999999999996
6-15, 15, 0
6-15, 16, 0.0160000000000053
6-15, 17, 0.00100000000000477
6-15, 18, 0.070999999999998
6-15, 19, 0.027000000000001
6-15, 20, 0.00799999999999557
6-15, 21, 0.00799999999999557
6-15, 22, 0
6-15, 23, 0.00200000000000955
6-16, 00, 0
6-16, 01, 0
6-16, 02, 0
6-16, 03, 0
6-16, 04, 0.00499999999999545
6-16, 05, 0
6-16, 06, 0
6-16, 07, 0
6-16, 08, 0
6-16, 09, 0.0390000000000015
6-16, 10, 0.00100000000000477
6-16, 11, 0
6-16, 12, 0
6-16, 13, 0
6-16, 14, 0.00300000000000011
6-16, 15, 0
6-16, 16, 0.00499999999999545
6-16, 17, 0.0379999999999967
6-16, 18, 0.007000000000005
6-16, 19, 0.0439999999999969
6-16, 20, 0
6-16, 21, 0.00199999999999534
6-16, 22, 0.00500000000000966
6-16, 23, 0.00300000000000011
6-17, 00, 0
6-17, 01, 0
6-17, 02, 0
6-17, 03, 0
6-17, 04, 0.00499999999999545
6-17, 05, 0
6-17, 06, 0
6-17, 07, 0
6-17, 08, 0
6-17, 09, 0
6-17, 10, 0.034000000000006
6-17, 11, 0
6-17, 12, 0
6-17, 13, 0
6-17, 14, 0
6-17, 15, 0.00999999999999091
6-17, 16, 0
6-17, 17, 0
6-17, 18, 0.0420000000000016
6-17, 19, 0.0190000000000055
6-17, 20, 0
6-17, 21, 0.000999999999990564
6-17, 22, 0
6-17, 23, 0.00300000000000011
6-18, 00, 0
6-18, 01, 0
6-18, 02, 0
6-18, 03, 0
6-18, 04, 0.0440000000000111
6-18, 05, 0
6-18, 06, 0
6-18, 07, 0
6-18, 08, 0
6-18, 09, 0.000999999999990564
6-18, 10, 0.0310000000000059
6-18, 11, 0.000999999999990564
6-18, 12, 0
6-18, 13, 0
6-18, 14, 0.0390000000000015
6-18, 15, 0
6-18, 16, 0
6-18, 17, 0.00100000000000477
6-18, 18, 0.0400000000000063
6-18, 19, 0.00300000000000011
6-18, 20, 0
6-18, 21, 0
6-18, 22, 0
6-18, 23, 0.00199999999999534
6-19, 00, 0
6-19, 01, 0
6-19, 02, 0
6-19, 03, 0
6-19, 04, 0.00499999999999545
6-19, 05, 0
6-19, 06, 0
6-19, 07, 0
6-19, 08, 0
6-19, 09, 0.046999999999997
6-19, 10, 0
6-19, 11, 0
6-19, 12, 0
6-19, 13, 0
6-19, 14, 0
6-19, 15, 0.00600000000000023
6-19, 16, 0.0770000000000124
6-19, 17, 0.0139999999999958
6-19, 18, 0.0369999999999919
6-19, 19, 0.0210000000000008
6-19, 20, 0
6-19, 21, 0
6-19, 22, 0
6-19, 23, 0.00300000000000011
6-20, 00, 0
6-20, 01, 0
6-20, 02, 0
6-20, 03, 0
6-20, 04, 0
6-20, 05, 0.0160000000000053
6-20, 06, 0.00300000000000011
6-20, 07, 0.0130000000000052
6-20, 08, 0.012999999999991
6-20, 09, 0.078000000000003
6-20, 10, 0.0370000000000061
6-20, 11, 0.000999999999990564
6-20, 12, 0.0100000000000051
6-20, 13, 0.00799999999999557
6-20, 14, 0.0120000000000005
6-20, 15, 0.0169999999999959
6-20, 16, 0.00400000000000489
6-20, 17, 0.0229999999999961
6-20, 18, 0.00200000000000955
6-20, 19, 0.0109999999999957
6-20, 20, 0.0109999999999957
6-20, 21, 0.00100000000000477
6-20, 22, 0.00300000000000011
6-20, 23, 0.0109999999999957
6-21, 00, 0.00800000000000978
6-21, 01, 0.0249999999999915
6-21, 02, 0.00100000000000477
6-21, 03, 0
6-21, 04, 0
6-21, 05, 0
6-21, 06, 0
6-21, 07, 0
6-21, 08, 0.00400000000000489
6-21, 09, 0.0269999999999868
6-21, 10, 0.054000000000002
6-21, 11, 0.0300000000000011
6-21, 12, 0
6-21, 13, 0
6-21, 14, 0
6-21, 15, 0
6-21, 16, 0
6-21, 17, 0
6-21, 18, 0
6-21, 19, 0
6-21, 20, 0
6-21, 21, 0
6-21, 22, 0
6-21, 23, 0.0250000000000057
6-22, 00, 0.00199999999999534
6-22, 01, 0
6-22, 02, 0
6-22, 03, 0
6-22, 04, 0
6-22, 05, 0
6-22, 06, 0
6-22, 07, 0
6-22, 08, 0
6-22, 09, 0.0180000000000007
6-22, 10, 0.0100000000000051
6-22, 11, 0.00999999999999091
6-22, 12, 0.0600000000000023
6-22, 13, 0.0580000000000069
6-22, 14, 0
6-22, 15, 0
6-22, 16, 0
6-22, 17, 0.0630000000000024
6-22, 18, 0.00300000000000011
6-22, 19, 0
6-22, 20, 0
6-22, 21, 0
6-22, 22, 0
6-22, 23, 0
6-23, 00, 0.00300000000000011
6-23, 01, 0
6-23, 02, 0
6-23, 03, 0
6-23, 04, 0
6-23, 05, 0
6-23, 06, 0
6-23, 07, 0
6-23, 08, 0
6-23, 09, 0
6-23, 10, 0.0259999999999962
6-23, 11, 0
6-23, 12, 0
6-23, 13, 0
6-23, 14, 0
6-23, 15, 0
6-23, 16, 0.0120000000000005
6-23, 17, 0
6-23, 18, 0.0210000000000008
6-23, 19, 0
6-23, 20, 0
6-23, 21, 0.000999999999990564
6-23, 22, 0
6-23, 23, 0.00300000000000011
6-24, 00, 0
6-24, 01, 0
6-24, 02, 0
6-24, 03, 0
6-24, 04, 0.00600000000000023
6-24, 05, 0
6-24, 06, 0
6-24, 07, 0
6-24, 08, 0
6-24, 09, 0
6-24, 10, 0.0360000000000014
6-24, 11, 0
6-24, 12, 0
6-24, 13, 0.00100000000000477
6-24, 14, 0
6-24, 15, 0.00799999999999557
6-24, 16, 0
6-24, 17, 0
6-24, 18, 0.0889999999999986
6-24, 19, 0.0420000000000016
6-24, 20, 0
6-24, 21, 0
6-24, 22, 0.00100000000000477
6-24, 23, 0.00199999999999534
6-25, 00, 0
6-25, 01, 0
6-25, 02, 0
6-25, 03, 0
6-25, 04, 0
6-25, 05, 0
6-25, 06, 0
6-25, 07, 0
6-25, 08, 0
6-25, 09, 0.0319999999999965
6-25, 10, 0
6-25, 11, 0.00600000000000023
6-25, 12, 0.00100000000000477
6-25, 13, 0
6-25, 14, 0.00300000000000011
6-25, 15, 0.00300000000000011
6-25, 16, 0
6-25, 17, 0.027000000000001
6-25, 18, 0
6-25, 19, 0.0229999999999961
6-25, 20, 0.00100000000000477
6-25, 21, 0
6-25, 22, 0
6-25, 23, 0.00300000000000011
6-26, 00, 0
6-26, 01, 0
6-26, 02, 0
6-26, 03, 0
6-26, 04, 0.00499999999999545
6-26, 05, 0
6-26, 06, 0
6-26, 07, 0
6-26, 08, 0
6-26, 09, 0
6-26, 10, 0.054000000000002
6-26, 11, 0
6-26, 12, 0
6-26, 13, 0
6-26, 14, 0.00900000000000034
6-26, 15, 0.00400000000000489
6-26, 16, 0.00199999999999534
6-26, 17, 0
6-26, 18, 0.0520000000000067
6-26, 19, 0.0420000000000016
6-26, 20, 0
6-26, 21, 0
6-26, 22, 0.00399999999999068
6-26, 23, 0
6-27, 00, 0
6-27, 01, 0
6-27, 02, 0
6-27, 03, 0
6-27, 04, 0
6-27, 05, 0
6-27, 06, 0
6-27, 07, 0
6-27, 08, 0
6-27, 09, 0
6-27, 10, 0.00199999999999534
6-27, 11, 0.00400000000000489
6-27, 12, 0.0100000000000051
6-27, 13, 0
6-27, 14, 0.00900000000000034
6-27, 15, 0.0600000000000023
6-27, 16, 0
6-27, 17, 0.0609999999999928
6-27, 18, 0.0859999999999985
6-27, 19, 0
6-27, 20, 0.00500000000000966
6-27, 21, 0.0239999999999867
6-27, 22, 0
6-27, 23, 0.00200000000000955
6-28, 00, 0
6-28, 01, 0
6-28, 02, 0
6-28, 03, 0
6-28, 04, 0
6-28, 05, 0
6-28, 06, 0
6-28, 07, 0
6-28, 08, 0
6-28, 09, 0
6-28, 10, 0.0109999999999957
6-28, 11, 0.0820000000000078
6-28, 12, 0.0419999999999874
6-28, 13, 0
6-28, 14, 0
6-28, 15, 0
6-28, 16, 0
6-28, 17, 0
6-28, 18, 0
6-28, 19, 0.0520000000000067
6-28, 20, 0.00100000000000477
6-28, 21, 0.0369999999999919
6-28, 22, 0
6-28, 23, 0
6-29, 00, 0.00300000000000011
6-29, 01, 0
6-29, 02, 0
6-29, 03, 0
6-29, 04, 0
6-29, 05, 0
6-29, 06, 0
6-29, 07, 0
6-29, 08, 0.00300000000000011
6-29, 09, 0.0769999999999982
6-29, 10, 0
6-29, 11, 0.00600000000000023
6-29, 12, 0.00100000000000477
6-29, 13, 0.0409999999999968
6-29, 14, 0.00100000000000477
6-29, 15, 0.00199999999999534
6-29, 16, 0.0109999999999957
6-29, 17, 0
6-29, 18, 0
6-29, 19, 0
6-29, 20, 0.0250000000000057
6-29, 21, 0
6-29, 22, 0.00100000000000477
6-29, 23, 0.00199999999999534