<?xml version="1.0" encoding="UTF-8"?>
<!DOCTYPE svg PUBLIC "-//W3C//DTD SVG 1.1//EN" "http://www.w3.org/Graphics/SVG/1.1/DTD/svg11.dtd">
<!-- Creator: CorelDRAW -->
<svg xmlns="http://www.w3.org/2000/svg" xml:space="preserve" width="400px" height="600px" style="shape-rendering:geometricPrecision; text-rendering:geometricPrecision; image-rendering:optimizeQuality; fill-rule:evenodd; clip-rule:evenodd"
viewBox="0 0 400 565.714"
 xmlns:xlink="http://www.w3.org/1999/xlink">
 <defs>
  <style type="text/css">
   <![CDATA[
    .fil0 {fill:#333333}
   ]]>
  </style>
 </defs>
 <g id="Layer_x0020_1">
  <metadata id="CorelCorpID_0Corel-Layer"/>
  <path class="fil0" d="M202.12 104.321l-0.416381 1.25257 -0.419619 0.416571 -0.416571 0.836 -0.416571 0.416571 -0.419429 0.836 -0.416571 0.416571 -0.416571 0.416571 -0.836 0.416571 -0.416571 0.419429 -0.836 0.416571 -0.833143 0.416571 -0.836 0.419429 -1.66914 0.416571 -4.17429 0 -1.25257 -0.416571 -1.25257 -0.419429 -0.419619 -0.416571 -0.832952 -0.416571 -0.83619 -0.419429 -0.416381 -0.416571 -0.416571 -0.416571 -0.419619 -0.416571 -0.416571 -0.419429 -0.416381 -0.833143 -0.419619 -0.419429 -0.416571 -0.833143 -0.416571 -0.836 -0.419429 -1.25257 0 -5.42686 0.419429 -1.66914 0.416571 -0.83619 0.416571 -0.416381 0.419619 -0.83619 0.416381 -0.416571 0.416571 -0.836 0.419619 -0.416571 0.832952 -0.416571 0.419619 -0.419429 0.416571 -0.416571 0.832952 -0.416571 0.83619 -0.419429 1.25257 -0.416571 2.08857 -0.416571 1.66914 0 2.50514 0.416571 1.25257 0.416571 0.833143 0.419429 0.419429 0.416571 0.833143 0.416571 0.419429 0.419429 0.416571 0.416571 0.416571 0.416571 0.416571 0.419429 0.419429 0.416571 0.416571 0.416571 0.416571 0.83619 0.419619 0.832952 0.416381 0.83619 0.416571 1.25257 0 5.01029 -0.416571 1.25257zm-66.7949 -89.7552l-4.59086 0.416571 -4.5939 0.416571 -2.92171 0.416571 -3.34114 0.419429 -2.92171 0.416571 -2.50533 0.416571 -2.5021 0.419429 -2.08876 0.416571 -2.08857 0.416571 -2.08571 0.419429 -1.66914 0.416571 -2.08857 0.416571 -1.66914 0.419429 -1.66914 0.416571 -1.25257 0.416571 -1.67219 0.419429 -1.66914 0.416571 -1.25257 0.416571 -1.66914 0.416571 -0.836 0.419429 -1.25257 0.416571 -1.25257 0.416571 -1.25257 0.419619 -1.24971 0.416571 -0.836 0.416381 -1.25257 0.419619 -1.25257 0.416571 -0.836 0.416571 -0.833143 0.419429 -1.25257 0.416571 -0.83619 0.416571 -0.832952 0.419429 -0.83619 0.416571 -1.25257 0.416571 -0.836 0.416571 -0.416571 0.419429 -0.836 0.416571 0 2.92171 0.419429 0.419429 0.416571 0.416571 0.416571 0.416571 0.419429 0.419429 0.416571 0.416571 0.416571 0.416571 0.419619 0.416571 0.416381 0.419429 0.416571 0.416571 0.419619 0.416571 0.416571 0.419429 0.416381 0.416571 0.419619 0.416571 0.416571 0.419429 0.416571 0.416571 0.416571 0.416571 0.419429 0.419619 0.416571 0.416381 0.416571 0.416571 0.419429 0.419619 0.416571 0.416571 0.416571 0.416381 0.419429 0.416571 0.416571 0.419619 0.416571 0.416571 0.419429 0.416381 0.416571 0.419619 0.416571 0.833143 0.419429 0.419429 0.416571 0.416571 0.416571 0.416571 0.416571 0.419429 0.419429 0.416571 0.416571 0.836 0.416571 0.416571 0.419429 0.416571 0.416571 0.416571 0.416571 0.836 0.419429 0.416571 0.416571 0.419429 0.416571 0.833143 0.419429 0.419429 0.416571 0.416571 0.416571 0.836 0.419429 0.416571 0.416571 0.416571 0.416571 0.836 0.416571 0.416571 0.419429 0.836 0.416571 0.416571 0 0.416571 -0.416571 0.419429 -0.419429 0.416571 -0.416571 0.416571 -0.416571 0.419619 -0.416571 0.416381 -0.419429 0.416571 -0.416571 0.419619 -0.416571 0.416571 -0.419429 0.416381 -0.416571 0.419619 -0.416571 0.416571 -0.419429 0.416571 -0.416571 0.416571 -0.416571 0.836 -0.419429 0.416571 -0.416571 0.419429 -0.416571 0.416571 -0.419429 0.416571 -0.416571 0.419429 -0.416571 0.416571 -0.416571 0.416571 -0.419429 0.419429 -0.416571 0.416571 -0.416571 0.416571 -0.419429 0.419429 -0.416571 0.416571 -0.416571 0.416571 -0.419429 0.416571 -0.416571 0.419429 -0.416571 0.416571 -0.419429 0.416571 -0.416571 0.419429 -0.416571 0.833143 -0.419429 0.419429 -0.416571 0.416571 -0.416571 0.416571 -0.416571 0.419429 -0.419619 0.416571 -0.416381 0.416571 -0.416571 0.419429 -0.419619 0.416571 -0.416571 0.416571 -0.416381 0.416571 -0.419619 0.419429 -0.416571 0.416571 -0.416571 0.416571 -0.419429 0.419619 -0.416571 0.416571 -0.416571 0.416381 -0.419429 0.83619 -0.416571 0.416571 -0.416571 0.419429 -0.416571 0.416571 -0.419429 0.416571 -0.833143 0.419429 -0.419429 0.416571 -0.416571 0.416571 -0.416571 0.416571 -0.419429 0.419429 -0.416571 0.416571 -0.416571 0.416571 -0.836 0.419429 -0.416571 0.416571 -0.419429 0.416571 -0.833143 0.419429 -2.92171 0 -1.25257 -0.419429 -0.419619 -0.416571 -0.832952 -0.416571 -0.419619 -0.419429 -0.416571 -0.416571 -0.416381 -0.416571 -0.416571 -0.419429 -0.419619 -0.416571 -0.416571 -0.416571 -0.416381 -0.416571 -0.419619 -0.836 -0.416571 -0.416571 -0.416571 -0.836 -0.419429 -0.416571 -0.416571 -0.836 -0.416571 -0.416571 -0.419429 -0.83619 -0.416571 -0.416571 -0.416571 -0.419429 -0.419429 -0.833143 -0.416571 -0.416571 -0.416571 -0.836 -0.416571 -0.416571 -0.419429 -0.836 -0.416571 -0.416571 -0.416571 -0.836 -0.419429 -0.416571 -0.416571 -0.419429 -0.416571 -0.416571 -0.419429 -0.836 -0.416571 -0.416571 -0.416571 -0.416571 -0.419429 -0.416571 -0.416571 -0.419429 -0.416571 -0.416571 -0.419429 -0.416571 -0.833143 -0.419429 -0.416571 -0.416571 -0.419429 -0.416571 -0.833143 -0.419429 -0.836 -0.416571 -0.83619 -0.416571 -0.416381 -0.419429 -0.83619 -0.416571 -0.833143 -0.416571 -0.419429 -0.419429 -0.833143 -0.416571 -0.836 -0.416571 -0.833143 -0.416571 -0.836 -0.419619 -1.25257 -0.416381 -0.836 -0.416571 -0.833143 -0.419619 -1.25257 -0.416571 -0.836 -0.416381 -1.25257 -0.419619 -1.25257 -0.416571 -1.66914 -0.416571 -1.66914 -0.419429 -1.66914 -0.416571 -3.34133 -0.416571 -2.92171 0 -1.66914 0.416571 -0.419429 1.25257 0 4.17448 0.419429 4.59371 0.416571 3.33829 0.416571 2.08857 0.419429 2.08571 0.416571 1.66914 0.416571 1.67219 0.419429 1.25257 0.416571 1.25257 0.416571 1.25257 0.416571 1.24971 0.419429 1.25257 0.416571 0.836 0.416571 1.25257 0.419429 0.836 0.416571 0.833143 0.416571 0.836 0.419619 0.833143 0.416381 0.836 0.416571 0.416571 0.419619 0.836 0.416571 0.416571 0.416381 0.836 0.419619 0.416571 0.416571 0.836 0.416571 0.416571 0.416571 0.83619 0.419429 0.416381 0.416571 0.416571 0.416571 0.419619 0.419429 0.416571 0.416571 0.836 0.836 0.416571 0.416571 0.416571 0.416571 0.419429 0.419429 0.416571 0.416571 0.416571 0.416571 0.419429 0.419429 0.416571 0.416571 0.416571 0.833143 0.419429 0.419429 0.416571 0.833143 0.416571 0.419429 0.416571 0.833143 0.419429 0.836 0.416571 0.836 0.416571 0.833143 0.419429 0.836 0.416571 -0.836 0.416571 -0.833143 0.419429 -0.836 0.416571 -0.836 0.416571 -0.833143 0.419429 -0.419429 0.416571 -0.833143 0.416571 -0.419429 0.419429 -0.833143 0.416571 -0.416571 0.416571 -0.419429 0.416571 -0.416571 0.419429 -0.416571 0.416571 -0.419429 0.416571 -0.833143 0.419429 -0.419429 0.416571 -0.416571 0.416571 -0.416571 0.419619 -0.419429 0.832952 -0.416571 0.419619 -0.416571 0.416571 -0.419429 0.416381 -0.416571 0.419619 -0.416571 0.833143 -0.416571 0.416571 -0.419619 0.836 -0.416381 0.416571 -0.416571 0.836 -0.419619 0.836 -0.416571 0.416571 -0.416381 0.836 -0.419619 0.833143 -0.416571 0.836 -0.416571 0.833143 -0.419429 0.836 -0.416571 1.25257 -0.416571 0.836 -0.419429 1.25257 -0.416571 0.833143 -0.416571 1.66914 -0.416571 1.25257 -0.419429 1.25257 -0.416571 1.67219 -0.416571 1.66914 -0.419429 2.08571 -0.416571 2.08857 -0.416571 3.75771 -0.419429 3.33829 0 6.26305 0.419429 1.25257 6.26 0 2.08876 -0.416571 1.66914 -0.419429 1.25257 -0.416571 1.25257 -0.416571 1.25257 -0.419429 0.836 -0.416571 1.25257 -0.416571 0.833143 -0.419619 1.25257 -0.416381 0.836 -0.416571 0.833143 -0.419619 0.836 -0.416571 0.836 -0.416381 0.833143 -0.416571 0.419429 -0.419619 0.833143 -0.416571 0.836 -0.416571 0.416571 -0.419429 0.83619 -0.416571 0.416571 -0.416571 0.836 -0.419429 0.416571 -0.416571 0.836 -0.416571 0.833143 -0.419429 0.419429 -0.416571 0.416571 -0.416571 0.416571 -0.419429 0.416571 -0.416571 0.419429 -0.416571 0.416571 -0.416571 0.416571 -0.419429 0.419429 -0.416571 0.416571 -0.416571 0.416571 -0.419429 0.419429 -0.416571 0.416571 -0.836 0.416571 -0.416571 0.419429 -0.416571 0.416571 -0.836 0.416571 -0.416571 0.419429 -0.836 0.416571 -0.416571 0.416571 -0.836 0.416571 -0.416571 0.419429 -0.836 0.416571 -0.416571 0.416571 -0.83619 0.419429 -0.416571 0.416571 -0.416381 0.416571 -0.83619 0.419429 -0.416571 0.416571 -0.836 0.416571 -0.416571 0.419619 -0.416571 0.416381 -0.419429 0.416571 -0.416571 0.419619 -0.416571 0.416571 -0.836 0.832952 -0.416571 0.419619 -0.419429 0.416571 -0.416571 0.836 -0.416571 1.25257 -0.419429 2.92171 0 0.833143 0.419429 0.836 0.416571 0.416571 0.416571 0.836 0.419429 0.416571 0.416571 0.836 0.416571 0.416571 0.419429 0.419429 0.416571 0.416571 0.416571 0.836 0.419429 0.416571 0.416571 0.416571 0.416571 0.416571 0.416571 0.419429 0.419429 0.416571 0.416571 0.836 0.416571 0.416571 0.419619 0.416571 0.416381 0.419619 0.416571 0.416381 0.419619 0.416571 0.416571 0.419619 0.416571 0.416571 0.419429 0.416381 0.416571 0.83619 0.416571 0.416571 0.419429 0.416571 0.416571 0.419429 0.416571 0.416571 0.416571 0.416571 0.419429 0.419429 0.416571 0.416571 0.416571 0.416571 0.419429 0.419429 0.416571 0.833143 0.416571 0.419429 0.419429 0.416571 0.416571 0.416571 0.416571 0.419429 0.419429 0.416571 0.416571 0.416571 0.416571 0.416571 0.419429 0.836 0.416571 0.416571 0.416571 0.419429 0.416571 0.416571 0.419429 0.416571 0.416571 0.419429 0.416571 0.416571 0.419429 0.416571 0.416571 0.836 0.416571 0.416571 0.419429 0.419429 0.416571 0.416571 0.416571 0.416571 0.419429 0.416571 0.416571 0.419429 0.416571 0.833143 0.419619 0.419619 0.416571 0.416571 0.416381 0.416381 0.416571 0.419619 0.419619 0.833143 0.416571 0.419429 0.416381 0.416571 0.419619 0.416571 0.416571 0.836 0.416571 0.416571 0.419429 0.416571 0.416571 0.419429 0.416571 0.833143 0.419429 0.419429 0.416571 0.416571 0.416571 0.836 0.419429 0.416571 0.416571 0.416571 0.416571 0.836 0.416571 0.416571 0.419429 0.836 0.416571 0.416571 0.416571 0.416571 0.419429 0.836 0.416571 0.416571 0.416571 0.836 0.419429 0.416571 0.416571 0.836 0.416571 0.416571 0.419429 0.836 0.416571 0.83619 0.416571 0.416571 0.419429 0.832952 0.416571 0.83619 0.416571 0.416381 0.416571 0.83619 0.419429 0.836 0.416571 0.833143 0.416571 0.836 0.419429 0.836 0.416571 0.833143 0.416571 0.836 0.419619 0.833143 0.416381 0.836 0.416571 1.25257 0.419619 0.836 0.416571 1.25257 0.416381 1.24971 0.419619 1.25257 0.416571 1.25257 0.416571 1.67219 0.416381 2.08571 0.419619 2.92171 0.416571 0 0.416571 -0.416571 1.25257 -0.416571 1.25257 -0.419429 0.836 -0.416571 1.25257 -0.416571 0.833143 -0.419429 0.836 -0.416571 1.25257 -0.416571 0.836 -0.416571 0.833143 -0.419619 0.836 -0.416381 0.416571 -0.416571 0.836 -0.419619 0.833143 -0.416571 0.836 -0.416381 0.416571 -0.419619 0.836 -0.416571 0.416571 -0.416571 0.419619 -0.419429 0.833143 -0.416571 0.419429 -0.416571 0.416571 -0.419429 0.836 -0.416571 0.416571 -0.416571 0.416571 -0.416571 0.416571 -0.419429 0.419429 -0.416571 0.416571 -0.416571 0.416571 -0.419429 0.419429 -0.416571 0.416571 -0.416571 0.416571 -0.419429 0.419429 -0.416571 0.416571 0 0.836 0.416571 0.833143 0.836 0.419429 7.096 0 3.34133 -0.419429 2.50514 -0.416571 2.08571 -0.416571 1.66914 -0.419429 1.672 -0.416571 1.25257 -0.416571 1.66914 -0.419429 0.836 -0.416571 1.24971 -0.416571 1.25257 -0.419429 1.25257 -0.416571 0.83619 -0.416571 0.836 -0.419429 1.25257 -0.416571 0.833143 -0.416571 0.836 -0.416571 0.833143 -0.419429 0.836 -0.416571 0.836 -0.416571 0.833143 -0.419429 0.419429 -0.416571 0.833143 -0.416571 0.836 -0.419619 0.416571 -0.416571 0.836 -0.416381 0.416571 -0.419619 0.836 -0.416571 0.416571 -0.416571 0.836 -0.419429 0.416571 -0.416571 0.416571 -0.416571 0.836 -0.416571 0.416571 -0.419429 0.419619 -0.416571 0.416571 -0.416571 0.416381 -0.419429 0.416571 -0.416571 0.83619 -0.416571 0.416381 -0.419429 0.419619 -0.416571 0.416571 -0.416571 0.416571 -0.419429 0.419429 -0.416571 0.416571 -0.416571 0.416571 -0.419429 0.419429 -0.833143 0.416571 -0.416571 0.416571 -0.419429 0.419429 -0.416571 0.416571 -0.416571 0.416571 -0.836 0.416571 -0.416571 0.419429 -0.419429 0.416571 -0.833143 0.416571 -0.419429 0.419429 -0.833143 0.416571 -0.836 0.416571 -0.833143 0.419429 -0.419619 0.416571 -1.25257 0.416571 -0.832952 0.419429 -1.25276 0.416571 -0.836 0.416571 -1.66914 0.419429 -1.66914 0.416571 -0.419429 0.833143 -0.416571 0.419429 -0.416571 0.833143 -0.419429 0.836 -0.416571 0.83619 -0.416571 0.416381 -0.419429 0.83619 -0.416571 0.832952 -0.416571 0.83619 -0.419429 0.832952 -0.416571 0.419619 -0.416571 0.833143 -0.416571 0.419429 -0.419429 0.833143 -0.416571 0.419429 -0.416571 0.833143 -0.419429 0.419429 -0.416571 0.833143 -0.416571 0.419429 -0.419429 0.833143 -0.416571 0.416571 -0.416571 0.836 -0.419619 0.416571 -0.416381 0.419429 -0.416571 0.833143 -0.419619 0.419429 -0.416571 0.416571 -0.416381 0.836 -0.416571 0.416571 -0.419619 0.416571 -0.416571 0.836 -0.416571 0.416571 -0.419429 0.416571 -0.416571 0.836 -0.416571 0.416571 -0.419429 0.419619 -0.416571 0.416381 -0.416571 0.416571 -0.419429 0.419619 -0.416571 0.416571 -0.416571 0.836 -0.419429 0.416571 -0.416571 0.416571 -0.416571 0.419429 -0.416571 0.416571 -0.419429 0.416571 -0.416571 0.416571 -0.416571 0.419429 -0.419429 0.416571 -0.416571 0.416571 -0.416571 0.419429 -0.419429 0.416571 -0.416571 0.416571 -0.416571 0.419429 -0.419429 0.416571 -0.416571 0.416571 -0.416571 0.419429 -0.419429 0.416571 -0.416571 0.836 -0.416571 0.416571 -0.836 0.416571 -0.416571 0.416571 -0.416571 0.419429 -0.419429 0.416571 -0.416571 0.416571 -0.416571 0.419429 -0.419619 0.416571 -0.832952 0.416571 -0.419619 0.419429 -0.416571 0.416571 -0.416571 0.416571 -0.419429 0.419429 -0.416571 0.416571 -0.833143 0.416571 -0.419429 0.419619 -0.416571 0.416571 -0.836 0.416381 -0.416571 0.416571 -0.416571 0.419619 -0.836 0.416571 -0.416571 0.416381 -0.836 0.419619 -0.416571 0.416571 -0.836 0.416571 -0.416571 0.419429 -0.836 0.416571 -0.833143 0.416571 -0.419429 0.419429 -0.833143 0.416571 -0.836 0.416571 -0.836 0.419429 -0.833143 0.416571 -0.836 0.416571 -0.833143 0.416571 -0.836 0.419429 -1.25276 0.416571 -1.25257 0.416571 -1.66914 0.419429 -1.66914 0 -7.09886 -0.419429 -1.66914 -0.416571 -1.25257 -0.416571 -1.25257 -0.419429 -1.66914 -0.416571 -0.83619 -0.416571 -0.833143 -0.416571 -0.836 -0.419429 -1.25257 -0.416571 -0.836 -0.416571 -0.833143 -0.419429 -0.836 -0.416571 -0.833143 -0.416571 -0.419429 -0.419429 -0.833143 -0.416571 -0.836 -0.416571 -0.836 -0.419619 -0.416571 -0.416381 -0.836 -0.416571 -0.416571 -0.419619 -0.836 -0.416571 -0.416571 -0.416381 -0.833143 -0.416571 -0.419429 -0.419619 -0.833143 -0.416571 -0.419429 -0.416571 -0.833143 -0.419429 -0.419619 -0.416571 -0.832952 -0.416571 -0.419619 -0.419429 -0.416571 -0.416571 -0.836 -0.416571 -0.416571 -0.419429 -0.416571 -0.416571 -0.416571 -0.416571 -0.836 -0.419429 -0.416571 -0.416571 -0.419429 -0.416571 -0.833143 -0.416571 -0.419429 -0.419429 -0.416571 -0.416571 -0.416571 -0.416571 -0.419429 -0.419429 -0.416571 -0.416571 -0.416571 -0.416571 -0.836 -0.419429 -0.416571 -0.416571 -0.416571 -0.416571 -0.419429 -0.419429 -0.416571 -0.416571 -0.416571 -0.416571 -0.419429 -0.419429 -0.416571 -0.416571 -0.416571 -0.416571 -0.419429 -0.416571 -0.416571 -0.419429 -0.416571 -0.416571 -0.419429 -0.416571 -0.416571 -0.419429 -0.416571 -0.416571 -0.419429 -0.416571 -0.416571 -0.419619 -0.416571 -0.416571 -0.416571 -0.416381 -0.419619 -0.419619 -0.416381 -0.416571 -0.416571 -0.416571 -0.419619 -0.419429 -0.416571 -0.416571 -0.416381 -0.416571 -0.419619 -0.416571 -0.416571 -0.419429 -0.416571 -0.416571 -0.419429 -0.836 -0.416571 -0.416571 -0.416571 -0.416571 -0.419429 -0.419429 -0.416571 -0.416571 -0.416571 -0.416571 -0.416571 -0.419429 -0.419429 -0.833143 -0.416571 -0.419429 -0.416571 -0.416571 -0.419429 -0.416571 -0.416571 -0.836 -0.416571 -0.416571 -0.419429 -0.416571 -0.416571 -0.836 -0.416571 -0.416571 -0.419429 -0.419429 -0.416571 -0.833143 -0.416571 -0.419429 -0.419429 -0.416571 -0.416571 -0.83619 -0.416571 -0.416381 -0.416571 -0.833143 -0.419429 -0.419619 -0.416571 -0.832952 -0.416571 -0.419619 -0.419429 -0.832952 -0.416571 -0.419619 -0.416571 -0.833143 -0.419429 -0.419429 -0.416571 -0.833143 -0.416571 -0.419429 -0.419619 -0.833143 -0.416381 -0.836 -0.416571 -0.833143 -0.419619 -0.419429 -0.416571 -0.833143 -0.416381 -0.836 -0.416571 -0.416571 -0.419619 -0.419429 -0.416571 -0.416571 -0.836 -0.416571 -0.416571 -0.419429 -0.416571 -0.416571 -0.419429 -0.416571 -0.833143 -0.416571 -0.419429 -0.419429 -0.416571 -0.416571 -0.416571 -0.416571 -0.836 -0.419429 -0.416571 -0.416571 -0.416571 -0.416571 -0.419429 -0.419429 -0.416571 -0.416571 -0.416571 -0.416571 -0.419429 -0.419619 -0.416571 -0.416381 -0.416571 -0.416571 -0.419429 -0.419619 -0.416571 -0.416571 -0.416571 -0.416381 -0.419429 -0.416571 -0.416571 -0.419619 -0.416571 -0.416571 -0.419429 -0.416571 -0.416571 -0.419429 -0.416571 -0.416571 -0.416571 -0.416571 -0.419429 -0.419429 -0.416571 -0.416571 -0.416571 -0.416571 -0.419429 -0.419429 -0.416571 -0.416571 -0.416571 -0.416571 -0.419619 -0.836 -0.416381 -0.416571 -0.416571 -0.416571 -0.419619 -0.419429 -0.416571 -0.416571 -0.416571 -0.416571 -0.419429 -0.836 -0.416571 -0.416571 -0.416571 -0.419429 -0.416571 -0.416571 -0.419429 -0.836 -0.416571 -0.416571 -0.416571 -0.416571 -0.419429 -0.419429 -0.416571 -0.833143 -0.416571 -0.416571 -0.419429 -0.419429 -0.416571 -0.833143 -0.416571 -0.419429 -0.419429 -0.416571 -0.416571 -0.83619 -0.416571 -0.416571 -0.419429 -0.836 -0.416571 -0.833143 -0.416571 -0.836 -0.416571 -2.08571 -0.419429 -2.92457 0 -5.84343 0.419429z"/>
 </g>
</svg>
